…
# Data

## Importing

``` r
coord <- readxl::read_xlsx("coordinates.xlsx")
```

## Visualizing

``` r
coord
```

    ## # A tibble: 30 x 4
    ##     long   lat azimuthe distance
    ##    <dbl> <dbl>    <dbl>    <dbl>
    ##  1 -35.2 -8.04    66.3     173. 
    ##  2  NA   NA      -25.6     143. 
    ##  3  NA   NA     -164.      213. 
    ##  4  NA   NA        9.47    235. 
    ##  5  NA   NA      129.       43.4
    ##  6  NA   NA      118.      103. 
    ##  7  NA   NA       28.0      62.6
    ##  8  NA   NA       57.8      42.7
    ##  9  NA   NA     -142.      116. 
    ## 10  NA   NA       87.0     200. 
    ## # i 20 more rows
…
``` r
coord
```

    ## # A tibble: 30 x 4
    ##     long   lat azimuthe distance
    ##    <dbl> <dbl>    <dbl>    <dbl>
    ##  1 -35.2 -8.04    66.3     173. 
    ##  2 -35.2 -8.04   -25.6     143. 
    ##  3 -35.2 -8.04  -164.      213. 
    ##  4 -35.2 -8.04     9.47    235. 
    ##  5 -35.2 -8.04   129.       43.4
    ##  6 -35.2 -8.04   118.      103. 
    ##  7 -35.2 -8.04    28.0      62.6
    ##  8 -35.2 -8.04    57.8      42.7
    ##  9 -35.2 -8.04  -142.      116. 
    ## 10 -35.2 -8.04    87.0     200. 
    ## # i 20 more rows
